AM 1 - Visualizing time series data II
…
2022 Durham-Chapel Hill

dch_2022 <- read_csv(
  here::here("data/durham-chapel-hill/ad_aqi_tracker_data-2022.csv"),
  na = c(".", "")
)

dch_2022 <- dch_2022 |>
  janitor::clean_names() |>
  mutate(date = mdy(date))

dch_2022

# A tibble: 365 × 11
   date       aqi_value main_pol…¹ site_…² site_id source x20_y…³
   <date>         <dbl> <chr>      <chr>   <chr>   <chr>    <dbl>
 1 2022-01-01        22 PM2.5      Durham… 37-063… AQS        111
 2 2022-01-02        12 PM2.5      Durham… 37-063… AQS         76
 3 2022-01-03        10 PM2.5      Durham… 37-063… AQS         66
 4 2022-01-04        21 PM2.5      Durham… 37-063… AQS         61
 5 2022-01-05        35 PM2.5      Durham… 37-063… AQS         83
 6 2022-01-06        29 PM2.5      Durham… 37-063… AQS         71
 7 2022-01-07        15 PM2.5      Durham… 37-063… AQS         75
 8 2022-01-08        28 PM2.5      Durham… 37-063… AQS         76
 9 2022-01-09        28 PM2.5      Durham… 37-063… AQS         57
10 2022-01-10        15 PM2.5      Durham… 37-063… AQS         71
# … with 355 more rows, 4 more variables:
#   x20_year_low_2000_2019 <dbl>,
#   x5_year_average_2015_2019 <dbl>, date_of_20_year_high <chr>,
#   date_of_20_year_low <chr>, and abbreviated variable names
#   ¹​main_pollutant, ²​site_name, ³​x20_year_high_2000_2019
…
When visualizing time series data, a somewhat common task is to calculate cumulatives over time and plot them

In our example we’ll calculate the number of days with “good” AQI (\(\le\) 50) and plot that value on the y-axis and the date on the x-axis

Calculating cumulatives

Step 1. Arrange your data

dch_2022 |>
  select(date, aqi_value) |>
  filter(!is.na(aqi_value)) |>
  arrange(date)

# A tibble: 364 × 2
  date       aqi_value
  <date>         <dbl>
1 2022-01-01        22
2 2022-01-02        12
3 2022-01-03        10
4 2022-01-04        21
5 2022-01-05        35
# … with 359 more rows

Calculating cumulatives

Step 2. Identify good days

dch_2022 |>
  select(date, aqi_value) |>
  filter(!is.na(aqi_value)) |>
  arrange(date) |>
  mutate(good_aqi = if_else(aqi_value <= 50, 1, 0))

# A tibble: 364 × 3
  date       aqi_value good_aqi
  <date>         <dbl>    <dbl>
1 2022-01-01        22        1
2 2022-01-02        12        1
3 2022-01-03        10        1
4 2022-01-04        21        1
5 2022-01-05        35        1
# … with 359 more rows

Calculating cumulatives

Step 3. Sum over time

dch_2022 |>
  select(date, aqi_value) |>
  filter(!is.na(aqi_value)) |>
  arrange(date) |>
  mutate(
    good_aqi = if_else(aqi_value <= 50, 1, 0),
    cumsum_good_aqi = cumsum(good_aqi)
  )

# A tibble: 364 × 4
  date       aqi_value good_aqi cumsum_good_aqi
  <date>         <dbl>    <dbl>           <dbl>
1 2022-01-01        22        1               1
2 2022-01-02        12        1               2
3 2022-01-03        10        1               3
4 2022-01-04        21        1               4
5 2022-01-05        35        1               5
# … with 359 more rows
…
dch <- read_csv(dch_files, na = c(".", ""))

dch <- dch |>
  janitor::clean_names() |>
  mutate(
    date = mdy(date),
    good_aqi = if_else(aqi_value <= 50, 1, 0)
  ) |>
  filter(!is.na(aqi_value)) |>
  arrange(date) |>
  mutate(cumsum_good_aqi = cumsum(good_aqi), .after = aqi_value)

dch

# A tibble: 2,547 × 13
  date       aqi_value cumsum_go…¹ main_…² site_…³ site_id source
  <date>         <dbl>       <dbl> <chr>   <chr>   <chr>   <chr> 
1 2016-01-01        32           1 PM2.5   Durham… 37-063… AQS   
2 2016-01-02        37           2 PM2.5   Durham… 37-063… AQS   
3 2016-01-03        45           3 PM2.5   Durham… 37-063… AQS   
4 2016-01-04        33           4 PM2.5   Durham… 37-063… AQS   
5 2016-01-05        27           5 PM2.5   Durham… 37-063… AQS   
# … with 2,542 more rows, 6 more variables:
#   x20_year_high_2000_2019 <dbl>, x20_year_low_2000_2019 <dbl>,
#   x5_year_average_2015_2019 <dbl>, date_of_20_year_high <chr>,
#   date_of_20_year_low <chr>, good_aqi <dbl>, and abbreviated
#   variable names ¹​cumsum_good_aqi, ²​main_pollutant, ³​site_name
…
Coefficients:
(Intercept)         date  
 -1.341e+04    7.954e-01  

Detrend

Step 2. Augment the data with model results (using broom::augment())

dch_aug <- augment(m)

dch_aug

# A tibble: 2,547 × 8
  cumsum_good_…¹ date       .fitted .resid    .hat .sigma .cooksd
           <dbl> <date>       <dbl>  <dbl>   <dbl>  <dbl>   <dbl>
1              1 2016-01-01   -42.8   43.8 0.00157   25.4 0.00234
2              2 2016-01-02   -42.0   44.0 0.00157   25.4 0.00236
3              3 2016-01-03   -41.3   44.3 0.00156   25.4 0.00238
4              4 2016-01-04   -40.5   44.5 0.00156   25.4 0.00240
5              5 2016-01-05   -39.7   44.7 0.00156   25.4 0.00242
# … with 2,542 more rows, 1 more variable: .std.resid <dbl>, and
#   abbreviated variable name ¹​cumsum_good_aqi

Detrend

Step 3. Divide the observed value of cumsum_good_aqi by the respective value in the long-term trend (i.e., .fitted)

dch_aug <- dch_aug |>
  mutate(ratio = cumsum_good_aqi / .fitted, .after = .fitted)

dch_aug

# A tibble: 2,547 × 9
  cumsum_good_…¹ date       .fitted   ratio .resid    .hat .sigma
           <dbl> <date>       <dbl>   <dbl>  <dbl>   <dbl>  <dbl>
1              1 2016-01-01   -42.8 -0.0233   43.8 0.00157   25.4
2              2 2016-01-02   -42.0 -0.0476   44.0 0.00157   25.4
3              3 2016-01-03   -41.3 -0.0727   44.3 0.00156   25.4
4              4 2016-01-04   -40.5 -0.0989   44.5 0.00156   25.4
5              5 2016-01-05   -39.7 -0.126    44.7 0.00156   25.4
# … with 2,542 more rows, 2 more variables: .cooksd <dbl>,
#   .std.resid <dbl>, and abbreviated variable name
#   ¹​cumsum_good_aqi
…
sf <- read_csv(sf_files, na = c(".", ""))

sf <- sf |>
  janitor::clean_names() |>
  mutate(
    date = mdy(date),
    good_aqi = if_else(aqi_value <= 50, 1, 0)
  ) |>
  filter(!is.na(aqi_value)) |>
  arrange(date) |>
  mutate(cumsum_good_aqi = cumsum(good_aqi), .after = aqi_value)

sf

# A tibble: 2,557 × 13
  date       aqi_value cumsum_go…¹ main_…² site_…³ site_id source
  <date>         <dbl>       <dbl> <chr>   <chr>   <chr>   <chr> 
1 2016-01-01        32           1 PM2.5   Durham… 37-063… AQS   
2 2016-01-02        37           2 PM2.5   Durham… 37-063… AQS   
3 2016-01-03        45           3 PM2.5   Durham… 37-063… AQS   
4 2016-01-04        33           4 PM2.5   Durham… 37-063… AQS   
5 2016-01-05        27           5 PM2.5   Durham… 37-063… AQS   
# … with 2,552 more rows, 6 more variables:
#   x20_year_high_2000_2019 <dbl>, x20_year_low_2000_2019 <dbl>,
#   x5_year_average_2015_2019 <dbl>, date_of_20_year_high <chr>,
#   date_of_20_year_low <chr>, good_aqi <dbl>, and abbreviated
#   variable names ¹​cumsum_good_aqi, ²​main_pollutant, ³​site_name
…
