AM 1 - Deep dive into ggplot2 layers - I
…
New variable: decade_built

duke_forest <- duke_forest |>
  mutate(decade_built = (year_built %/% 10) * 10)

duke_forest |>
  select(year_built, decade_built)

# A tibble: 98 × 2
   year_built decade_built
        <dbl>        <dbl>
 1       1972         1970
 2       1969         1960
 3       1959         1950
 4       1961         1960
 5       2020         2020
 6       2014         2010
 7       1968         1960
 8       1973         1970
 9       1972         1970
10       1964         1960
# … with 88 more rows
…
