AM 1 - Deep dive into ggplot2 layers - II
…
geom_sf(): for map data (more on this later…)

Average price per year built

mean_price_year <- duke_forest |>
  group_by(year_built) |>
  summarise(
    n = n(),
    mean_price = mean(price),
    sd_price = sd(price)
    )

mean_price_year

# A tibble: 44 × 4
   year_built     n mean_price sd_price
        <dbl> <int>      <dbl>    <dbl>
 1       1923     1     285000      NA 
 2       1934     1     600000      NA 
 3       1938     1     265000      NA 
 4       1940     1     105000      NA 
 5       1941     2     432500   28284.
 6       1945     2     525000  530330.
 7       1951     2     567500  258094.
 8       1952     2     531250  469165.
 9       1953     2     575000   35355.
10       1954     4     600000   33912.
# … with 34 more rows
…
